{
  "type": "service_account",
  "project_id": "lastbigproject",
  "private_key_id": "a1669df0198dd6331f5b6856e78be94be83b5269",
  "private_key": "-----BEGIN PRIVATE KEY-----\nMIIEvgIBADANBgkqhkiG9w0BAQEFAASCBKgwggSkAgEAAoIBAQCZmGaYbSrmGWfw\nhfhnkDoUBNR7ZJZ7speBtX4s3FdO6yiYCfITCFkZVxfu4+mTwMLj+F81Rgbc4Ytu\nAtQmvNk+3zNAffzuoJvhKDsazdbnGreda43UVytxcakonMr81LK+iaheVZxYfgDd\nZWc83q8iHvCRlGKrIHsU1mPohJlfZ0TmIqJSfuVGbNvqCX+QnF5CgS+ANVFzdqnX\n3GU99r6cw+fFzWi6cv0eVjq6iB8Fq/RHI3O/WuXp2RS9Qa/xSr1s14ezBCB7WWAg\n1NyRSqCAaBsW/ZAGcOdzz+LHSs5UPXf8svGTjoWxnFlOqagOWXO27C9tMr5aZPsZ\n3/DV6t95AgMBAAECggEAC2YxBBJDDyt2yDYrKMV+l/aBTgyZsgG/xo3BmOL7/FSN\n0VXYoFK76RpqgW1rDA8P78MizsV9FCbNlisx01Or9GN0jm5jR5MGKpxVoaBB+Sol\nkzJ0ptwW0m8u8J+NXZ0MDIHTK/gi17r3RbclRbJZsVi2Pjmy5nQtSk88gDjaGKdI\nGalSrzBzy1lMg1c0h0afkpOovi5CxvUN5m9kENR3dKfySoGs2VCrYRI7C9amwAca\nRVWjzkgqXXym1si82AdaPigTUXEP82vJ9bcIvBaWXeukkhFTozRKmkMYt2ZaZgJd\nV05orWScI5eBVqO5GarXqPTo/RuCEgz5E3ntilahsQKBgQDH81BSkz6GxCDjfpa5\ncuI4k1TNHHxeLVO8v86eqBAxIbrK6Sc0GDQNROvTDvz+P3+sbAiyqTXEEyP4+CZT\nIrWpA6Cm/mmzgJl+KYuNCGlkfrqgTLeXJr/H6pX1ExmmQt4mHC7tU0QV1NzfO6BL\nORtcvfazQrElVqBuZgV88nh/aQKBgQDEppY2e409jS4nju5h9Ob96of38qdQW2On\nBTWFJrSK/Lwgb9UaQjPz5VuHrIG8JndRzNvdGRFT7+5PVXfpKjt1NzPx3pdCnhBA\nuznW2PavR2IEhPltLzKakbxapB2WckTVZ3/aVuUIBtIFPcp/7NhHyXXpiU4N21Lb\nFry747NtkQKBgQCNoaXlt/L0VvzM6CAvoFbpqELLP0BBHW5RJrRe4cEGbFP54wkn\n93T3aTh6OgWuup/fLG9EzmMNTlmOw4eyH8X5wF4Nq+yHf7I6EYeOEMVGsBXV8kGh\nSYtTOrGZ9TuX74mYCSKcbPyvUiZZ4cx7PCpLmSukcrs0LZZaXN3KUZ5U8QKBgQCZ\nnnkhvoqrVqqDhIh8RVBdcuUcsJY7k+jZBJy2k3HeUWi0/ie/B5CGKtnBtuTyEiqL\n4DixE3AR3hCQMPgnUTJ5ctJFU9ld1RRlPN0GFR8/9ceAOFCRFpm1XbuCI0ppyII1\nI1EhQ1hPWOSf65FRNbgO/DX8ZaJv+LFVLQHq1QnJwQKBgCosbH+u7dV/z27kgkE4\n2A5B2YiNvIqd3cVjyOgkBtqdkmJ9jtCz0txQf1Nyf6UjOhTCRT8PPP22Znt66j5n\nFsIxuQ4IQ6ujHXMql9mSHNQvzESd8Cs8L/dj4bNRbPues1kQDJS3twIrzj+Q6H8Z\nSjPl4pVtcdmoKVDKC1/hTZnt\n-----END PRIVATE KEY-----\n",
  "client_email": "gitlab-lastbigproject@lastbigproject.iam.gserviceaccount.com",
  "client_id": "100646271390997052312",
  "auth_uri": "https://accounts.google.com/o/oauth2/auth",
  "token_uri": "https://oauth2.googleapis.com/token",
  "auth_provider_x509_cert_url": "https://www.googleapis.com/oauth2/v1/certs",
  "client_x509_cert_url": "https://www.googleapis.com/robot/v1/metadata/x509/gitlab-lastbigproject%40lastbigproject.iam.gserviceaccount.com"
}
